"Candidatos","url","url_type"
"jucamacero1","juancarlosmartinezcecias@gmail.com","19"
"omjena1","od334484@gmail.com","19"
"clorgu1","clauordazcandidata@gmail.com","19"
"rastllse1","https://www.stuardollamas.com.mx","2"
"dujahute1","DulceHuerta3","12"
"jolumoni1","psicjorgemontes@gmail.com","19"
"besirogu1","beatrizroblesgs@gmail.com","19"
"soroac1","http://www.soniarocha.com.mx","2"
"soroac1","oficinaenlaceqro@gmail.com","19"
"romaolal1","casadecampanarositao@gmail.com","19"
"johedo1","josslove17","8"
"laalheba1","la_hbalboa@hotmail.com","19"
"anmamelo1","AnaMeneRedes","12"
"anmamelo1","paraany@hotmail.com","19"
"sagamo1","salomongarciamontes@gmail.com","19"
"joigalruch1","jrubio70@hotmail.com","19"
"maalmuca1","maria.diputadaqro@gmail.com","19"
"tecaro1","https://www.terecalzada.mx","2"
"walogo1","cuidadania2021waltter@gmail.com","19"
"jocamaji1","fuentedevidaqueretaroiap@gmail.com","19"
"ancaraay1","acra2291@hotmail.com","19"
"safaarse1","sarroyosi.qro@gmail.com","19"
"juerol1","erreguin10@hotmail.com","19"
"cacaalpa1","Darla_carla@hotmail.com","19"
